module vanicir

go 1.18

require (
	github.com/btcsuite/btcd/btcec/v2 v2.1.2 // indirect
	github.com/decred/dcrd/dcrec/secp256k1/v4 v4.0.1 // indirect
	github.com/ethereum/go-ethereum v1.10.17 // indirect
	golang.org/x/crypto v0.0.0-20210322153248-0c34fe9e7dc2 // indirect
	golang.org/x/sys v0.0.0-20210816183151-1e6c022a8912 // indirect
)
